[
  {
    "id": "00",
    "name": "html",
    "price": 100,
    "url": "http://localhost:3000/img/html-trick.jpg",
    "color": ""
  },
  {
    "id": "01",
    "name": "css",
    "price": 1000,
    "url": "http://localhost:3000/img/css-art.jpg",
    "color": ""
  },
  {
    "id": "02",
    "name": "JS",
    "price": 10000,
    "url": "http://localhost:3000/img/js.jpg",
    "color": ""
  },

  {
    "id": "03",
    "name": "ES6",
    "price": 100000,
    "url": "http://localhost:3000/img/Javascript-ES6.jpg",
    "color": ""
  },
  {
    "id": "04",
    "name": "React",
    "price": 1000000,
    "url": "http://localhost:3000/img/logo192.png",
    "color": ""
  },
  {
    "id": "05",
    "name": "PHP",
    "price": 200000,
    "url": "http://localhost:3000/img/php.png",
    "color": ""
  },
  {
    "id": "06",
    "name": "Node JS",
    "price": 2300000,
    "url": "http://localhost:3000/img/nodejslogo.png",
    "color": ""
  },
  {
    "id": "07",
    "name": "Objective-c",
    "price": 5000000,
    "url": "http://localhost:3000/img/objective-c.png",
    "color": ""
  },
  {
    "id": "08",
    "name": "Clion-c",
    "price": 7000000,
    "url": "http://localhost:3000/img/clion-c.png",
    "color": ""
  },
  {
    "id": "09",
    "name": "Goland-Go",
    "price": 11000000,
    "url": "http://localhost:3000/img/goland-go.png",
    "color": ""
  }

]

